…
**Tidy data:**  A tremendous amount of time is spent on fundamental preprocessing tasks to get your data into the right form in order to feed it into the visualization and modeling stages. This typically requires a large amount of reshaping of your data. If you understand the proper way to organize your data up-front you will save yourself a lot of time during the analysis phase. Read and work through [*Chapter 12: Tidy Data*](http://r4ds.had.co.nz/tidy-data.html) to learn how to consistently organize your data.

**Relational data:** It’s rare that a data analysis involves only a single data set. Typically you have many sets of data and you need to join them to perform your analysis and answer the questions that you’re interested in. To learn how to work with joining relational data read and work through [*Chapter 13: Relational Data*](http://r4ds.had.co.nz/relational-data.html).


## Homework

Create an HTML R Markdown document named “week-5.Rmd”. Title this HTML document “Week 5 Homework” and be sure to include your name in the YAML.  Download this data: &nbsp; <a href="https://www.dropbox.com/sh/qgv90e945updkzq/AADpwjjWq-7u3IArV0rYl3-9a?dl=1" style="color:black;"><i class="fa fa-cloud-download" style="font-size:1em"></i></a>. There are multiple data sets[^data] in this file and a short decription of each variable is provided [here](http://uc-r.github.io/data_wrangling/week-5-assignment-data).

With these available data sets perform the following exercises:

__1\.__ Import the `bomber_wide.rds` file, which lists the flying hours for each aircraft by year. Convert this data to a tibble and tidy it by changing it from a wide format to a long format so that you have the following columns: *Type, MD, Year,* & *FH*. The final data should look like:

```
# A tibble: 57 × 4
     Type    MD  Year    FH
    <chr> <chr> <chr> <int>
1  Bomber   B-1  1996 26914
2  Bomber   B-2  1996  2364
3  Bomber  B-52  1996 28511
4  Bomber   B-1  1997 25219
5  Bomber   B-2  1997  2776
6  Bomber  B-52  1997 26034
7  Bomber   B-1  1998 24205
8  Bomber   B-2  1998  2166
9  Bomber  B-52  1998 25639
10 Bomber   B-1  1999 23306
# ... with 47 more rows
```

__2\.__ Import the `bomber_long.rds` data, which provides the value for three different outputs for each aircraft by year. The output measures include cost, flying hours, and gallons of gas consumed but these variables are "stacked" in the *Output* variable. Change this data to a tibble and convert to a wider format so that you have the following columns: *Type, MD, FY, Cost, FH,* & *Gallons*. Your data should look like:

```
# A tibble: 57 × 6
     Type    MD    FY      Cost    FH   Gallons
*   <chr> <chr> <int>     <int> <int>     <int>
1  Bomber   B-1  1996  72753781 26914  88594449
2  Bomber   B-1  1997  71297263 25219  85484074
3  Bomber   B-1  1998  84026805 24205  85259038
4  Bomber   B-1  1999  71848336 23306  79323816
5  Bomber   B-1  2000  58439777 25013  86230284
6  Bomber   B-1  2001  94946077 25059  86892432
7  Bomber   B-1  2002  96458536 26581  89198262
8  Bomber   B-1  2003  68650070 21491  74485788
9  Bomber   B-1  2004 101895634 28118 101397707
10 Bomber   B-1  2005 124816690 21859  78410415
# ... with 47 more rows
```

__3\.__ Import the `bomber_combined.rds` file. Note that the first variable in this data (*AC*) combines the aircraft type (Bomber) and aircraft designator (i.e. B-1). This variable should be split into two.  Take this data and convert it to a tibble and separate the *AC* variable into *"Type"* and *"MD"* so that your data looks like:

```
# A tibble: 57 × 6
     Type    MD    FY      Cost    FH   Gallons
*   <chr> <chr> <int>     <int> <int>     <int>
1  Bomber   B-1  1996  72753781 26914  88594449
2  Bomber   B-1  1997  71297263 25219  85484074
3  Bomber   B-1  1998  84026805 24205  85259038
4  Bomber   B-1  1999  71848336 23306  79323816
5  Bomber   B-1  2000  58439777 25013  86230284
6  Bomber   B-1  2001  94946077 25059  86892432
7  Bomber   B-1  2002  96458536 26581  89198262
8  Bomber   B-1  2003  68650070 21491  74485788
9  Bomber   B-1  2004 101895634 28118 101397707
10 Bomber   B-1  2005 124816690 21859  78410415
# ... with 47 more rows
```
__4\.__ Import the `bomber_prefix.rds` data. Take this data and convert it to a tibble and unite the *prefix* and *number* variables into an *"MD"* variable so that the data matches the tidy data sets you produced in problems #2 and #3.

__5\.__ Import the `bomber_mess.rds` file so that it is a tibble.  Clean this data up by making it contain the following variables: 

- *Type*
- *MD* which combines the *prefix* and *number* variable (i.e. "B-1")
- *FY* which is the left part of the *Metric* variable
- *Cost* which is captured in the right part of the *Metric* variable
- *FH* which is captured in the right part of the *Metric* variable
- *Gallons* which is captured in the right part of the *Metric* variable

Perform the required actions by stringing together the necessary functions with the [pipe operator](http://uc-r.github.io/pipe) (`%>%`). The final data should look like:
    
```
# A tibble: 57 × 6
     Type    MD    FY      Cost    FH   Gallons
*   <chr> <chr> <chr>     <int> <int>     <int>
1  Bomber   B-1  1996  72753781 26914  88594449
2  Bomber   B-1  1997  71297263 25219  85484074
3  Bomber   B-1  1998  84026805 24205  85259038
4  Bomber   B-1  1999  71848336 23306  79323816
5  Bomber   B-1  2000  58439777 25013  86230284
6  Bomber   B-1  2001  94946077 25059  86892432
7  Bomber   B-1  2002  96458536 26581  89198262
8  Bomber   B-1  2003  68650070 21491  74485788
9  Bomber   B-1  2004 101895634 28118 101397707
10 Bomber   B-1  2005 124816690 21859  78410415
# ... with 47 more rows
```
…
