…
<br>

## Prerequisites {#prereq}
This tutorial primarily uses the `rsample` package to create bootstrap samples but also uses the `purrr` and `ggplot2` packages (both contained in `tidyverse`).  To illustrate, our example `attrition` data comes from the `rsample` package.


```r
library(tidyverse)
library(rsample)

as_tibble(attrition)
## # A tibble: 1,470 x 31
##      Age Attr… Busi… Dail… Depa… Dist… Educ… Educ… Envi… Gend… Hour… JobI…
##  * <int> <fct> <fct> <int> <fct> <int> <ord> <fct> <ord> <fct> <int> <ord>
##  1    41 Yes   Trav…  1102 Sales     1 Coll… Life… Medi… Fema…    94 High 
##  2    49 No    Trav…   279 Rese…     8 Belo… Life… High  Male     61 Medi…
##  3    37 Yes   Trav…  1373 Rese…     2 Coll… Other Very… Male     92 Medi…
##  4    33 No    Trav…  1392 Rese…     3 Mast… Life… Very… Fema…    56 High 
##  5    27 No    Trav…   591 Rese…     2 Belo… Medi… Low   Male     40 High 
##  6    32 No    Trav…  1005 Rese…     2 Coll… Life… Very… Male     79 High 
##  7    59 No    Trav…  1324 Rese…     3 Bach… Medi… High  Fema…    81 Very…
##  8    30 No    Trav…  1358 Rese…    24 Belo… Life… Very… Male     67 High 
##  9    38 No    Trav…   216 Rese…    23 Bach… Life… Very… Male     44 Medi…
## 10    36 No    Trav…  1299 Rese…    27 Bach… Medi… High  Male     94 High 
## # ... with 1,460 more rows, and 19 more variables: JobLevel <int>, JobRole
## #   <fctr>, JobSatisfaction <ord>, MaritalStatus <fctr>, MonthlyIncome
## #   <int>, MonthlyRate <int>, NumCompaniesWorked <int>, OverTime <fctr>,
## #   PercentSalaryHike <int>, PerformanceRating <ord>,
## #   RelationshipSatisfaction <ord>, StockOptionLevel <int>,
## #   TotalWorkingYears <int>, TrainingTimesLastYear <int>, WorkLifeBalance
## #   <ord>, YearsAtCompany <int>, YearsInCurrentRole <int>,
## #   YearsSinceLastPromotion <int>, YearsWithCurrManager <int>
```
…
The bootstrap samples are stored in data-frame-like `tibble` object where each bootstrap is nested in the `splits` column.  We can access each bootstrap sample just as you would access parts of a list.  Here, we access the first bootstrap sample stored in `bt_samples$splits[[1]]`. The `<1470/530/1470>` indicates that 1470 observations are in the bootstrap sample, 530 observations were not sampled in this bootstrap sample (meaning $$1470-530 = 940$$ observations were sample 1 or more times to make the 1470 observations in the bootstrap sample), and the last 1470 indicates the total number of observations in the original data set.  Remember, when performing bootstrap sampling, each bootstrap sample will always contain the same number of observations as the original data set.  To extract the first bootstrap sample we can use `rsample::analysis`.


```r
# observation split
bt_samples$splits[[1]]
## <1470/530/1470>

# exctract the first bootstrap sample
analysis(bt_samples$splits[[1]]) %>% as_tibble()
## # A tibble: 1,470 x 31
##      Age Attr… Busi… Dail… Depa… Dist… Educ… Educ… Envi… Gend… Hour… JobI…
##  * <int> <fct> <fct> <int> <fct> <int> <ord> <fct> <ord> <fct> <int> <ord>
##  1    56 Yes   Trav…   441 Rese…    14 Mast… Life… Medi… Fema…    72 High 
##  2    32 No    Trav…   859 Rese…     4 Bach… Life… High  Fema…    98 Medi…
##  3    34 No    Trav…   216 Sales     1 Mast… Mark… Medi… Male     75 Very…
##  4    34 No    Trav…  1111 Sales     8 Coll… Life… High  Fema…    93 High 
##  5    39 Yes   Trav…  1162 Sales     3 Coll… Medi… Very… Fema…    41 High 
##  6    46 No    Trav…  1009 Rese…     2 Bach… Life… Low   Male     51 High 
##  7    53 No    Trav…  1223 Rese…     7 Coll… Medi… Very… Fema…    50 High 
##  8    50 No    Trav…   939 Rese…    24 Bach… Life… Very… Male     95 High 
##  9    41 No    Trav…   337 Sales     8 Bach… Mark… High  Fema…    54 High 
## 10    60 No    Trav…   422 Rese…     7 Bach… Life… Low   Fema…    41 High 
## # ... with 1,460 more rows, and 19 more variables: JobLevel <int>, JobRole
## #   <fctr>, JobSatisfaction <ord>, MaritalStatus <fctr>, MonthlyIncome
## #   <int>, MonthlyRate <int>, NumCompaniesWorked <int>, OverTime <fctr>,
## #   PercentSalaryHike <int>, PerformanceRating <ord>,
## #   RelationshipSatisfaction <ord>, StockOptionLevel <int>,
## #   TotalWorkingYears <int>, TrainingTimesLastYear <int>, WorkLifeBalance
## #   <ord>, YearsAtCompany <int>, YearsInCurrentRole <int>,
## #   YearsSinceLastPromotion <int>, YearsWithCurrManager <int>
```
…
