…
This creates a 2-column tibble. The second column contains the full text for each chapter; however, this isn't very conducive to future analyses.  We can unnest these texts:


```r
text_tb %>%
        unnest_tokens(word, text)
## # A tibble: 77,875 × 2
##    chapter    word
##      <int>   <chr>
## 1        1     the
## 2        1     boy
## 3        1     who
## 4        1   lived
## 5        1      mr
## 6        1     and
## 7        1     mrs
## 8        1 dursley
## 9        1      of
## 10       1  number
## # ... with 77,865 more rows
```
…
        clean <- tibble(chapter = seq_along(books[[i]]),
                        text = books[[i]]) %>%
             unnest_tokens(word, text) %>%
             mutate(book = titles[i]) %>%
             select(book, everything())

        series <- rbind(series, clean)
}

# set factor to keep books in order of publication
series$book <- factor(series$book, levels = rev(titles))

series
## # A tibble: 1,089,386 × 3
##                   book chapter    word
## *               <fctr>   <int>   <chr>
## 1  Philosopher's Stone       1     the
## 2  Philosopher's Stone       1     boy
## 3  Philosopher's Stone       1     who
## 4  Philosopher's Stone       1   lived
## 5  Philosopher's Stone       1      mr
## 6  Philosopher's Stone       1     and
## 7  Philosopher's Stone       1     mrs
## 8  Philosopher's Stone       1 dursley
## 9  Philosopher's Stone       1      of
## 10 Philosopher's Stone       1  number
## # ... with 1,089,376 more rows
```

We now have a tidy tibble with every individual word by chapter by book. We can now proceed to perform some simple word frequency analyses.

## Word Frequency {#frequency}

The simplest word frequency analysis is assessing the most common words in text.  We can use `count` to assess the most common words across all the text in the Harry Potter series.


```r
series %>%
        count(word, sort = TRUE)
## # A tibble: 24,475 × 2
##     word     n
##    <chr> <int>
## 1    the 51593
## 2    and 27430
## 3     to 26985
## 4     of 21802
## 5      a 20966
## 6     he 20322
## 7  harry 16557
## 8    was 15631
## 9   said 14398
## 10   his 14264
## # ... with 24,465 more rows
```

One thing you will notice is that a lot of the most common words are not very informative (i.e. *the, and, to, of, a, he, ...*).  These are considered __stop__ words.  Most of the time we want our text mining to identify words that provide context (i.e. *harry, dumbledore, granger, afraid,* etc.).  Thus, we can remove the stop words from our tibble with `anti_join` and the built-in `stop_words` data set provided by `tidytext`.  Now we start to see characters and other nouns, verbs, and adjectives that we would expect to be common in this series.


```r
series %>%
        anti_join(stop_words) %>%
        count(word, sort = TRUE)
## # A tibble: 23,795 × 2
##          word     n
##         <chr> <int>
## 1       harry 16557
## 2         ron  5750
## 3    hermione  4912
## 4  dumbledore  2873
## 5      looked  2344
## 6   professor  2006
## 7      hagrid  1732
## 8        time  1713
## 9        wand  1639
## 10       eyes  1604
## # ... with 23,785 more rows
```

We can perform this same assessment but grouped by book or even each chapter within each book.


```r
# top 10 most common words in each book
series %>%
        anti_join(stop_words) %>%
        group_by(book) %>%
        count(word, sort = TRUE) %>%
        top_n(10)
## Source: local data frame [70 x 3]
## Groups: book [7]
## 
##                    book     word     n
##                  <fctr>    <chr> <int>
## 1  Order of the Phoenix    harry  3730
## 2        Goblet of Fire    harry  2936
## 3       Deathly Hallows    harry  2770
## 4     Half-Blood Prince    harry  2581
## 5   Prisoner of Azkaban    harry  1824
## 6    Chamber of Secrets    harry  1503
## 7  Order of the Phoenix hermione  1220
## 8   Philosopher's Stone    harry  1213
## 9  Order of the Phoenix      ron  1189
## 10      Deathly Hallows hermione  1077
## # ... with 60 more rows
```
…
# calculate percent of word use within each novel
frequency <- series %>%
        anti_join(stop_words) %>%
        count(book, word) %>%
        mutate(book_words = n / sum(n)) %>%
        left_join(potter_pct) %>%
        arrange(desc(book_words)) %>%
        ungroup()
        
frequency
```

```
## # A tibble: 63,651 × 5
##                    book     word     n book_words  all_words
##                  <fctr>    <chr> <int>      <dbl>      <dbl>
## 1    Chamber of Secrets    harry  1503 0.04470420 0.04044824
## 2   Prisoner of Azkaban    harry  1824 0.04428474 0.04044824
## 3   Philosopher's Stone    harry  1213 0.04243484 0.04044824
## 4     Half-Blood Prince    harry  2581 0.04090462 0.04044824
## 5        Goblet of Fire    harry  2936 0.04040571 0.04044824
## 6  Order of the Phoenix    harry  3730 0.03854222 0.04044824
## 7       Deathly Hallows    harry  2770 0.03773533 0.04044824
## 8    Chamber of Secrets      ron   650 0.01933315 0.01404707
## 9   Prisoner of Azkaban      ron   690 0.01675245 0.01404707
## 10      Deathly Hallows hermione  1077 0.01467183 0.01199986
## # ... with 63,641 more rows
```
…
