…
```r
terms <- Terms(ps_dtm)
head(terms)
## [1] "　　a"                   "　　aaaargh　　quirrell"
## [3] "　　aha"                 "　　all"                
## [5] "　　and"                 "　　as"
```

If we wanted to analyze this data with tidy tools, we would first need to turn it into a data frame with one-token-per-document-per-row. The broom package introduced the `tidy()` function, which takes a non-tidy object and turns it into a tidy data frame. The `tidytext` package implements this method for DocumentTermMatrix objects.


```r
ps_tidy <- tidy(ps_dtm)
ps_tidy
## # A tibble: 20,435 × 3
##    document           term count
##       <chr>          <chr> <dbl>
## 1         1 　　dumbledore     1
## 2         1         　　my     1
## 3         1        　　yes     1
## 4         1           able     2
## 5         1         across     2
## 6         1            act     1
## 7         1         acting     1
## 8         1       admiring     1
## 9         1         affect     1
## 10        1      afternoon     1
## # ... with 20,425 more rows
```
…
```r
ps_dfm <- quanteda::dfm(philosophers_stone, verbose = FALSE)

ps_dfm
## Document-feature matrix of: 17 documents, 5,992 features (79.7% sparse).
```

We can also use the `tidy` function on this type of object to convert it into a tidied data frame:


```r
ps_tidy <- tidy(ps_dfm)
ps_tidy
## # A tibble: 20,688 × 3
##    document  term count
##       <chr> <chr> <dbl>
## 1     text1   the   204
## 2     text2   the   181
## 3     text3   the   222
## 4     text4   the   127
## 5     text5   the   274
## 6     text6   the   282
## 7     text7   the   252
## 8     text8   the   147
## 9     text9   the   207
## 10   text10   the   256
## # ... with 20,678 more rows
```
…
```r
acq[[1]]
## <<PlainTextDocument>>
## Metadata:  15
## Content:  chars: 1287
```

If we use `tidy` on this data set you now notice that the metadata is more informative and provides additional variables to analyze our data.  We could now look at most commons word by article, author, date, analyze the titles (*heading*), or a mariad of other analyses.  Bottom line, the metadata can be very informative in our analysis and using `tidy` allows us to include this information as variables.


```r
(tidy_acq <- tidy(acq))
## # A tibble: 50 × 16
##                       author       datetimestamp description
##                        <chr>              <dttm>       <chr>
## 1                       <NA> 1987-02-26 10:18:06            
## 2                       <NA> 1987-02-26 10:19:15            
## 3                       <NA> 1987-02-26 10:49:56            
## 4  By Cal Mankowski, Reuters 1987-02-26 10:51:17            
## 5                       <NA> 1987-02-26 11:08:33            
## 6                       <NA> 1987-02-26 11:32:37            
## 7      By Patti Domm, Reuter 1987-02-26 11:43:13            
## 8                       <NA> 1987-02-26 11:59:25            
## 9                       <NA> 1987-02-26 12:01:28            
## 10                      <NA> 1987-02-26 12:08:27            
## # ... with 40 more rows, and 13 more variables: heading <chr>, id <chr>,
## #   language <chr>, origin <chr>, topics <chr>, lewissplit <chr>,
## #   cgisplit <chr>, oldid <chr>, places <list>, people <lgl>, orgs <lgl>,
## #   exchanges <lgl>, text <chr>
```
…
