…
        clean <- tibble(chapter = seq_along(books[[i]]),
                        text = books[[i]]) %>%
             unnest_tokens(bigram, text, token = "ngrams", n = 2) %>%
             mutate(book = titles[i]) %>%
             select(book, everything())

        series <- rbind(series, clean)
}

# set factor to keep books in order of publication
series$book <- factor(series$book, levels = rev(titles))

series
## # A tibble: 1,089,186 × 3
##                   book chapter      bigram
## *               <fctr>   <int>       <chr>
## 1  Philosopher's Stone       1     the boy
## 2  Philosopher's Stone       1     boy who
## 3  Philosopher's Stone       1   who lived
## 4  Philosopher's Stone       1    lived mr
## 5  Philosopher's Stone       1      mr and
## 6  Philosopher's Stone       1     and mrs
## 7  Philosopher's Stone       1 mrs dursley
## 8  Philosopher's Stone       1  dursley of
## 9  Philosopher's Stone       1   of number
## 10 Philosopher's Stone       1 number four
## # ... with 1,089,176 more rows
```


Our output is similar to what we had in the previous tutorials; however, note that our bi-grams have groups of two words.  Also, note how there is some repetition, or overlapping.  The sentence "The boy who lived" is broken up into 3 bi-grams:

- "the boy"
- "boy who"
- "who lived"

This is done for the entire Harry Potter series and captures all the sequences of two consecutive words.  We can now perform common frequency analysis procedures.  First, let's look at the most common bi-grams across the entire Harry Potter series:


```r
series %>%
        count(bigram, sort = TRUE)
## # A tibble: 340,021 × 2
##        bigram     n
##         <chr> <int>
## 1      of the  4895
## 2      in the  3571
## 3  said harry  2626
## 4      he was  2490
## 5      at the  2435
## 6      to the  2386
## 7      on the  2359
## 8      he had  2138
## 9      it was  2123
## 10     out of  1911
## # ... with 340,011 more rows
```

With the exception of "said harry" the most common bi-grams include very common words that do not provide much context.  We can filter out these common *stop* words to find the most common bi-grams that provide context.  The results show pairs of words that are far more contextual than our previous set.


```r
series %>%
        separate(bigram, c("word1", "word2"), sep = " ") %>%
        filter(!word1 %in% stop_words$word,
               !word2 %in% stop_words$word) %>%
        count(word1, word2, sort = TRUE)
## Source: local data frame [89,120 x 3]
## Groups: word1 [14,752]
## 
##           word1      word2     n
##           <chr>      <chr> <int>
## 1     professor mcgonagall   578
## 2         uncle     vernon   386
## 3         harry     potter   349
## 4         death     eaters   346
## 5         harry     looked   316
## 6         harry        ron   302
## 7          aunt    petunia   206
## 8  invisibility      cloak   192
## 9     professor  trelawney   177
## 10         dark       arts   176
## # ... with 89,110 more rows
```
…
<img src="/public/images/analytics/descriptives/text_mining_words1.png" style="display: block; margin: auto;" />

## Analyzing n-grams {#analyze}

We can also follow a similar process as performed in the [term vs. document frequency](tf-idf_analysis) tutorial to identify the tf-idf of *n*-grams (or bi-grams in our ongoing example).


```r
(bigram_tf_idf <- series %>%
        count(book, bigram, sort = TRUE) %>%
        bind_tf_idf(bigram, book, n) %>%
        arrange(desc(tf_idf))
)
## Source: local data frame [523,420 x 6]
## Groups: book [7]
## 
##                    book             bigram     n           tf       idf
##                  <fctr>              <chr> <int>        <dbl>     <dbl>
## 1        Goblet of Fire          mr crouch   152 0.0007923063 1.2527630
## 2     Half-Blood Prince      said slughorn    84 0.0004904995 1.9459101
## 3   Prisoner of Azkaban    professor lupin   107 0.0010165981 0.8472979
## 4  Order of the Phoenix professor umbridge   173 0.0006686636 1.2527630
## 5       Deathly Hallows                c i    83 0.0004173602 1.9459101
## 6       Deathly Hallows              c but    62 0.0003117630 1.9459101
## 7       Deathly Hallows          the elder    60 0.0003017061 1.9459101
## 8       Deathly Hallows         elder wand    58 0.0002916493 1.9459101
## 9    Chamber of Secrets      said lockhart    38 0.0004450587 1.2527630
## 10  Prisoner of Azkaban         said lupin    97 0.0009215889 0.5596158
## # ... with 523,410 more rows, and 1 more variables: tf_idf <dbl>
```
…
<img src="/public/images/analytics/descriptives/text_mining_words2.png" style="display: block; margin: auto;" />

The sentiment analysis approch used in the [sentiment analysis](sentiment_analysis) tutorial simply counted the appearance of positive or negative words, according to a specified lexicon (i.e. AFINN, bing, nrc). Unfortunately, this approach scores the sentiments of words merely on their presence rather than on context. For example, the words "happy" and "like" will be counted as positive, even in a sentence like "I'm not happy and I don’t like it!"   

By performing sentiment analysis on our bi-gram data, we can examine how often sentiment-associated words are preceded by "not" or other negating words. 


```r
series %>%
        separate(bigram, c("word1", "word2"), sep = " ") %>%
        filter(word1 == "not") %>%
        count(book, word1, word2, sort = TRUE)
## Source: local data frame [2,106 x 4]
## Groups: book, word1 [7]
## 
##                    book word1 word2     n
##                  <fctr> <chr> <chr> <int>
## 1  Order of the Phoenix   not    to    90
## 2     Half-Blood Prince   not    to    79
## 3       Deathly Hallows   not    to    77
## 4        Goblet of Fire   not    to    45
## 5     Half-Blood Prince   not    be    42
## 6  Order of the Phoenix   not    be    39
## 7  Order of the Phoenix   not  have    37
## 8       Deathly Hallows   not    be    35
## 9       Deathly Hallows   not  know    35
## 10   Chamber of Secrets   not    to    34
## # ... with 2,096 more rows
```


We could use this to ignore or even reverse their contribution to the sentiment score.  Here we'll use the AFINN lexicon for the sentiment analysis, which gives a numeric sentiment score for each word. We can assess the most frequent words that have a sentiment score and were preceded by "not".


```r
AFINN <- get_sentiments("afinn")

(nots <- series %>%
        separate(bigram, c("word1", "word2"), sep = " ") %>%
        filter(word1 == "not") %>%
        inner_join(AFINN, by = c(word2 = "word")) %>%
        count(word2, score, sort = TRUE) 
)
## Source: local data frame [201 x 3]
## Groups: word2 [201]
## 
##     word2 score     n
##     <chr> <int> <int>
## 1    want     1    81
## 2    help     2    45
## 3    like     2    29
## 4    care     2    22
## 5     bad    -3    14
## 6    wish     1    14
## 7  stupid    -2    12
## 8    stop    -1    11
## 9  matter     1    10
## 10   dead    -3     9
## # ... with 191 more rows
```
…
We could expand this example and use a full list of words that signal negation (i.e. "not", "no", "never", "without"). This would allow us to find a larger pool of words that are preceded by negation and identify their impact on sentiment analysis.


```r
negation_words <- c("not", "no", "never", "without")

(negated <- series %>%
                separate(bigram, c("word1", "word2"), sep = " ") %>%
                filter(word1 %in% negation_words) %>%
                inner_join(AFINN, by = c(word2 = "word")) %>%
                count(word1, word2, score, sort = TRUE) %>%
                ungroup()
)
## # A tibble: 379 × 4
##    word1   word2 score     n
##    <chr>   <chr> <int> <int>
## 1    not    want     1    81
## 2     no      no    -1    74
## 3     no   doubt    -1    53
## 4    not    help     2    45
## 5     no    good     3    38
## 6    not    like     2    29
## 7     no  chance     2    22
## 8    not    care     2    22
## 9     no problem    -2    21
## 10    no  matter     1    19
## # ... with 369 more rows
```
…
Here we can see clusters of word networks most commonly used together. 


## Word Correlation {#corr}

In addition to understanding what words and sentiments occur within sections, chapters, and books, we may also want to understand which pairs of words co-appear within sections, chapters, and books.  Here we'll focus on the `philosophers_stone` book.


```r
(ps_words <- tibble(chapter = seq_along(philosophers_stone),
                  text = philosophers_stone) %>%
        unnest_tokens(word, text) %>%
        filter(!word %in% stop_words$word))
## # A tibble: 28,585 × 2
##    chapter      word
##      <int>     <chr>
## 1        1       boy
## 2        1     lived
## 3        1   dursley
## 4        1    privet
## 5        1     drive
## 6        1     proud
## 7        1 perfectly
## 8        1    normal
## 9        1    people
## 10       1    expect
## # ... with 28,575 more rows
```

We can leverage the `widyr` package to count common pairs of words co-appearing within the same chapter:


```r
library(widyr)

(word_pairs <- ps_words %>%
        pairwise_count(word, chapter, sort = TRUE))
## # A tibble: 9,035,616 × 3
##     item1 item2     n
##     <chr> <chr> <dbl>
## 1   found  time    17
## 2    left  time    17
## 3    head  time    17
## 4     day  time    17
## 5     sat  time    17
## 6    eyes  time    17
## 7   heard  time    17
## 8   harry  time    17
## 9  looked  time    17
## 10   door  time    17
## # ... with 9,035,606 more rows
```

The output provids the pairs of words as two variables (`item1` and `item2`).  This allows us to perform normal text mining activities like looking for what words most often follow "harry"


```r
word_pairs %>% 
        filter(item1 == "harry")
```

```
## # A tibble: 5,420 × 3
##    item1  item2     n
##    <chr>  <chr> <dbl>
## 1  harry   time    17
## 2  harry  found    17
## 3  harry   left    17
## 4  harry   head    17
## 5  harry    day    17
## 6  harry    sat    17
## 7  harry   eyes    17
## 8  harry  heard    17
## 9  harry looked    17
## 10 harry   door    17
## # ... with 5,410 more rows
```
…
$$\phi=\frac{n_{11}n_{00}-n_{10}n_{01}}{\sqrt{n_{1\cdot}n_{0\cdot}n_{\cdot0}n_{\cdot1}}}$$

The `pairwise_cor()` function in widyr lets us find the correlation between words based on how often they appear in the same section. Its syntax is similar to `pairwise_count()`.



```r

(word_cor <- ps_words %>%
   group_by(word) %>%
   filter(n() >= 20) %>%
   pairwise_cor(word, chapter) %>%
   filter(!is.na(correlation)))
## # A tibble: 53,130 × 3
##       item1 item2 correlation
##       <chr> <chr>       <dbl>
## 1   dursley   boy  0.29880715
## 2     drive   boy  0.01543033
## 3    people   boy -0.16137431
## 4   strange   boy  0.87400737
## 5    called   boy  0.16499158
## 6  dursleys   boy  0.60385964
## 7    dudley   boy  0.68465320
## 8    potter   boy  0.16499158
## 9    street   boy  0.29880715
## 10   reason   boy -0.01543033
## # ... with 53,120 more rows
```

Similar to before we can now assess correlation for words of interest.  For instance, what is the highest correlated words that appears with "potter"?  Interestingly, it isn't "harry".


```r
word_cor %>%
  filter(item1 == "potter") %>%
  arrange(desc(correlation))
## # A tibble: 230 × 3
##     item1    item2 correlation
##     <chr>    <chr>       <dbl>
## 1  potter    stood   0.6846532
## 2  potter    front   0.6846532
## 3  potter   moment   0.6846532
## 4  potter happened   0.6582806
## 5  potter     idea   0.4944132
## 6  potter    speak   0.4364358
## 7  potter  neville   0.4364358
## 8  potter standing   0.4333333
## 9  potter   stared   0.4333333
## 10 potter     fell   0.4333333
## # ... with 220 more rows
```
…
