…
        clean <- tibble(chapter = seq_along(books[[i]]),
                        text = books[[i]]) %>%
             unnest_tokens(word, text) %>%
             mutate(book = titles[i]) %>%
             select(book, everything())

        series <- rbind(series, clean)
}

# set factor to keep books in order of publication
series$book <- factor(series$book, levels = rev(titles))

series
## # A tibble: 1,089,386 × 3
##                   book chapter    word
## *               <fctr>   <int>   <chr>
## 1  Philosopher's Stone       1     the
## 2  Philosopher's Stone       1     boy
## 3  Philosopher's Stone       1     who
## 4  Philosopher's Stone       1   lived
## 5  Philosopher's Stone       1      mr
## 6  Philosopher's Stone       1     and
## 7  Philosopher's Stone       1     mrs
## 8  Philosopher's Stone       1 dursley
## 9  Philosopher's Stone       1      of
## 10 Philosopher's Stone       1  number
## # ... with 1,089,376 more rows
```
…
```r
book_words <- series %>%
        count(book, word, sort = TRUE) %>%
        ungroup()

series_words <- book_words %>%
        group_by(book) %>%
        summarise(total = sum(n))

book_words <- left_join(book_words, series_words)

book_words
## # A tibble: 67,881 × 4
##                    book  word     n  total
##                  <fctr> <chr> <int>  <int>
## 1  Order of the Phoenix   the 11740 258763
## 2       Deathly Hallows   the 10335 198906
## 3        Goblet of Fire   the  9305 191882
## 4     Half-Blood Prince   the  7508 171284
## 5  Order of the Phoenix    to  6518 258763
## 6  Order of the Phoenix   and  6189 258763
## 7       Deathly Hallows   and  5510 198906
## 8  Order of the Phoenix    of  5332 258763
## 9   Prisoner of Azkaban   the  4990 105275
## 10       Goblet of Fire   and  4959 191882
## # ... with 67,871 more rows
```
…
<img src="/public/images/analytics/descriptives/tf_idf3.png" style="display: block; margin: auto;" />



## Inverse Document Frequency and tf-idf {#idf}

The idea of tf-idf is to find the important words for the content of each document by decreasing the weight for commonly used words and increasing the weight for words that are not used very much in a collection or corpus of documents, in this case, the Harry Potter series. Calculating tf-idf attempts to find the words that are important (i.e., common) in a text, but not too common.  Or put another way, tf-idf helps to find the important words that can provide specific document context.  We can easily compute the idf and tf-idf using the `bind_tf_idf` function provided by the `tidytext` package.


```r
book_words <- book_words %>%
        bind_tf_idf(word, book, n)

book_words
## # A tibble: 67,881 × 7
##                    book  word     n  total         tf   idf tf_idf
##                  <fctr> <chr> <int>  <int>      <dbl> <dbl>  <dbl>
## 1  Order of the Phoenix   the 11740 258763 0.04536970     0      0
## 2       Deathly Hallows   the 10335 198906 0.05195922     0      0
## 3        Goblet of Fire   the  9305 191882 0.04849334     0      0
## 4     Half-Blood Prince   the  7508 171284 0.04383363     0      0
## 5  Order of the Phoenix    to  6518 258763 0.02518907     0      0
## 6  Order of the Phoenix   and  6189 258763 0.02391764     0      0
## 7       Deathly Hallows   and  5510 198906 0.02770153     0      0
## 8  Order of the Phoenix    of  5332 258763 0.02060573     0      0
## 9   Prisoner of Azkaban   the  4990 105275 0.04739967     0      0
## 10       Goblet of Fire   and  4959 191882 0.02584401     0      0
## # ... with 67,871 more rows
```

Notice how the common *non-contextual* words ("the", "to", "and", etc.) have high tf values but their idf and tf-idf values are 0.  Remember that $$idf(t,D) = log(\frac{N}{n_{t}})$$ so these common terms that occur in every document will have an $$idf = log(\frac{7}{7}) = 0$$ And since tf-idf is simply $$tf \cdot idf$$ this will also be zero.  

We can look at the words that have the highest tf-idf values.  Here we see mainly names for characters in each book that are unique to that book, and therefore used often, but are absent or nearly absent in the other books.



```r
book_words %>%
        arrange(desc(tf_idf))
## # A tibble: 67,881 × 7
##                    book        word     n  total           tf       idf
##                  <fctr>       <chr> <int>  <int>        <dbl>     <dbl>
## 1     Half-Blood Prince    slughorn   335 171284 0.0019558161 1.2527630
## 2       Deathly Hallows           c  1300 198906 0.0065357506 0.3364722
## 3  Order of the Phoenix    umbridge   496 258763 0.0019168119 0.8472979
## 4        Goblet of Fire      bagman   208 191882 0.0010839995 1.2527630
## 5    Chamber of Secrets    lockhart   197  85401 0.0023067646 0.5596158
## 6   Prisoner of Azkaban       lupin   369 105275 0.0035051057 0.3364722
## 7        Goblet of Fire       winky   145 191882 0.0007556728 1.2527630
## 8        Goblet of Fire   champions    84 191882 0.0004377690 1.9459101
## 9       Deathly Hallows xenophilius    79 198906 0.0003971725 1.9459101
## 10    Half-Blood Prince    mclaggen    65 171284 0.0003794867 1.9459101
## # ... with 67,871 more rows, and 1 more variables: tf_idf <dbl>
```
…
