…
## Sentiment Data Sets {#sentiment}
There are a variety of dictionaries that exist for evaluating the opinion or emotion in text. The `tidytext` package contains three sentiment lexicons in the `sentiments` dataset.


```r
sentiments
## # A tibble: 23,165 × 4
##           word sentiment lexicon score
##          <chr>     <chr>   <chr> <int>
## 1       abacus     trust     nrc    NA
## 2      abandon      fear     nrc    NA
## 3      abandon  negative     nrc    NA
## 4      abandon   sadness     nrc    NA
## 5    abandoned     anger     nrc    NA
## 6    abandoned      fear     nrc    NA
## 7    abandoned  negative     nrc    NA
## 8    abandoned   sadness     nrc    NA
## 9  abandonment     anger     nrc    NA
## 10 abandonment      fear     nrc    NA
## # ... with 23,155 more rows
```
…
        clean <- tibble(chapter = seq_along(books[[i]]),
                        text = books[[i]]) %>%
             unnest_tokens(word, text) %>%
             mutate(book = titles[i]) %>%
             select(book, everything())

        series <- rbind(series, clean)
}

# set factor to keep books in order of publication
series$book <- factor(series$book, levels = rev(titles))

series
## # A tibble: 1,089,386 × 3
##                   book chapter    word
## *               <fctr>   <int>   <chr>
## 1  Philosopher's Stone       1     the
## 2  Philosopher's Stone       1     boy
## 3  Philosopher's Stone       1     who
## 4  Philosopher's Stone       1   lived
## 5  Philosopher's Stone       1      mr
## 6  Philosopher's Stone       1     and
## 7  Philosopher's Stone       1     mrs
## 8  Philosopher's Stone       1 dursley
## 9  Philosopher's Stone       1      of
## 10 Philosopher's Stone       1  number
## # ... with 1,089,376 more rows
```
…
The three different lexicons for calculating sentiment give results that are different in an absolute sense but have fairly similar relative trajectories through the novels. We see similar dips and peaks in sentiment at about the same places in the novel, but the absolute values are significantly different. In some instances, it apears the AFINN lexicon finds more positive sentiments than the NRC lexicon.  This output also allows us to compare across novels.  First, you get a good sense of differences in book lengths - Order of the Pheonix is much longer than Philosopher's Stone.  Second, you can compare how books differ in their sentiment (both direction and magnitude) across a series.

## Common Sentiment Words {#common}

One advantage of having the data frame with both sentiment and word is that we can analyze word counts that contribute to each sentiment.


```r
bing_word_counts <- series %>%
  inner_join(get_sentiments("bing")) %>%
  count(word, sentiment, sort = TRUE) %>%
  ungroup()

bing_word_counts
## # A tibble: 3,313 × 3
##      word sentiment     n
##     <chr>     <chr> <int>
## 1    like  positive  2416
## 2    well  positive  1969
## 3   right  positive  1643
## 4    good  positive  1065
## 5    dark  negative  1034
## 6   great  positive   877
## 7   death  negative   757
## 8   magic  positive   606
## 9  better  positive   533
## 10 enough  positive   509
## # ... with 3,303 more rows
```
…
## Sentiment Analysis with Larger Units {#larger}

Lots of useful work can be done by tokenizing at the word level, but sometimes it is useful or necessary to look at different units of text. For example, some sentiment analysis algorithms look beyond only unigrams (i.e. single words) to try to understand the sentiment of a sentence as a whole. These algorithms try to understand that

> I am not having a good day.

is a sad sentence, not a happy one, because of negation. The [Stanford CoreNLP](http://stanfordnlp.github.io/CoreNLP/) tools and the [`sentimentr`](https://github.com/trinker/sentimentr) R package (currently available on Github but not CRAN) are examples of such sentiment analysis algorithms. For these, we may want to tokenize text into sentences.  I'll illustrate using the `philosophers_stone` data set.


```r
tibble(text = philosophers_stone) %>% 
  unnest_tokens(sentence, text, token = "sentences")
## # A tibble: 6,598 × 1
##                                                                       sentence
##                                                                          <chr>
## 1                                              the boy who lived  mr. and mrs.
## 2  dursley, of number four, privet drive, were proud to say that they were per
## 3  they were the last people you'd expect to be involved in anything strange o
## 4                                                                          mr.
## 5      dursley was the director of a firm called grunnings, which made drills.
## 6  he was a big, beefy man with hardly any neck, although he did have a very l
## 7                                                                         mrs.
## 8  dursley was thin and blonde and had nearly twice the usual amount of neck, 
## 9  the dursleys had a small son called dudley and in their opinion there was n
## 10 the dursleys had everything they wanted, but they also had a secret, and th
## # ... with 6,588 more rows
```
…
```r
book_sent <- ps_sentences %>%
        group_by(chapter) %>%
        mutate(sentence_num = 1:n(),
               index = round(sentence_num / n(), 2)) %>%
        unnest_tokens(word, sentence) %>%
        inner_join(get_sentiments("afinn")) %>%
        group_by(chapter, index) %>%
        summarise(sentiment = sum(score, na.rm = TRUE)) %>%
        arrange(desc(sentiment))

book_sent
## Source: local data frame [1,401 x 3]
## Groups: chapter [17]
## 
##    chapter index sentiment
##      <int> <dbl>     <int>
## 1        9  0.47        14
## 2       17  0.91        13
## 3        4  0.11        12
## 4       12  0.45        12
## 5       17  0.54        12
## 6        1  0.25        11
## 7       10  0.04        11
## 8       10  0.16        11
## 9       11  0.48        11
## 10      12  0.70        11
## # ... with 1,391 more rows
```
…
