…
gridExtra::grid.arrange(p1, p2, p3, p4, ncol = 2)
```

<img src="/public/images/visual/graphical_data_analysis/hist2-1.png" style="display: block; margin: auto;" />

Overall, the histograms consistently show the most common income level to be right around \$130,000. We can also find the most frequent bin by combining `ggplot2::cut_width` (`ggplot2::cut_interval` and `ggplot2::cut_number` are additional options) with `dplyr::count`. We see that the most frequent bin when using increments of \$5,000 is \$128,000 - \$132,000.


```r
ames %>%
  count(cut_width(Sale_Price, width = 5000)) %>%
  arrange(desc(n))
## # A tibble: 106 x 2
##    `cut_width(Sale_Price, width = 5000)`     n
##    <fctr>                                <int>
##  1 (1.28e+05,1.32e+05]                     137
##  2 (1.42e+05,1.48e+05]                     130
##  3 (1.32e+05,1.38e+05]                     125
##  4 (1.38e+05,1.42e+05]                     125
##  5 (1.22e+05,1.28e+05]                     118
##  6 (1.52e+05,1.58e+05]                     103
##  7 (1.48e+05,1.52e+05]                     101
##  8 (1.18e+05,1.22e+05]                      99
##  9 (1.58e+05,1.62e+05]                      92
## 10 (1.72e+05,1.78e+05]                      92
## # ... with 96 more rows
```
…
```r
heatmap(1 * is.na(AmesHousing::ames_raw), Rowv = NA, Colv = NA)
```

<img src="/public/images/visual/graphical_data_analysis/heatmap2-1.png" style="display: block; margin: auto;" />

If we dig a little deeper into these variables we would notice that `Garage Cars` and `Garage Area` all contain the value 0 for every observation where the other `Garage_xx` variables have missing values.  This is because in the raw Ames housing data set, they did not have an option to identify houses with no garages.  Therefore, all houses with no garage were identified by including nothing.  This would be opportunity to create a new categorical level ("None") for these garage variables.


```r
AmesHousing::ames_raw %>% 
  filter(is.na(`Garage Type`)) %>% 
  select(contains("garage"))
## # A tibble: 157 x 7
##    `Garage Type` `Garage Yr Blt` `Garage Finish` `Gara… `Gara… `Gar… `Gar…
##    <chr>                   <int> <chr>            <int>  <int> <chr> <chr>
##  1 <NA>                       NA <NA>                 0      0 <NA>  <NA> 
##  2 <NA>                       NA <NA>                 0      0 <NA>  <NA> 
##  3 <NA>                       NA <NA>                 0      0 <NA>  <NA> 
##  4 <NA>                       NA <NA>                 0      0 <NA>  <NA> 
##  5 <NA>                       NA <NA>                 0      0 <NA>  <NA> 
##  6 <NA>                       NA <NA>                 0      0 <NA>  <NA> 
##  7 <NA>                       NA <NA>                 0      0 <NA>  <NA> 
##  8 <NA>                       NA <NA>                 0      0 <NA>  <NA> 
##  9 <NA>                       NA <NA>                 0      0 <NA>  <NA> 
## 10 <NA>                       NA <NA>                 0      0 <NA>  <NA> 
## # ... with 147 more rows
```
…
