…
This tutorial primarily leverages this [advertising data](http://www-bcf.usc.edu/~gareth/ISL/Advertising.csv) provided by the authors of [An Introduction to Statistical Learning](http://www-bcf.usc.edu/~gareth/ISL/index.html). This is a simple data set that contains, in thousands of dollars, `TV`, `Radio`, and `Newspaper` budgets for 200 different markets along with the `Sales`, in thousands of units, for each market.  We'll also use a few packages that provide data manipulation, visualization, pipeline modeling functions, and model output tidying functions.


```r
# Packages
library(tidyverse)  # data manipulation and visualization
library(modelr)     # provides easy pipeline modeling functions
library(broom)      # helps to tidy up model outputs

# Load data (remove row numbers included as X1 variable)
advertising <- read_csv("http://www-bcf.usc.edu/~gareth/ISL/Advertising.csv") %>%
  select(-X1)

advertising
## # A tibble: 200 × 4
##       TV Radio Newspaper Sales
##    <dbl> <dbl>     <dbl> <dbl>
## 1  230.1  37.8      69.2  22.1
## 2   44.5  39.3      45.1  10.4
## 3   17.2  45.9      69.3   9.3
## 4  151.5  41.3      58.5  18.5
## 5  180.8  10.8      58.4  12.9
## 6    8.7  48.9      75.0   7.2
## 7   57.5  32.8      23.5  11.8
## 8  120.2  19.6      11.6  13.2
## 9    8.6   2.1       1.0   4.8
## 10 199.8   2.6      21.2  10.6
## # ... with 190 more rows
```
…
So, what does having patterns in residuals mean to your research? It’s not just a go-or-stop sign. It tells you about your model and data. Your current model might not be the best way to understand your data if there’s so much good stuff left in the data.

In that case, you may want to go back to your theory and hypotheses. Is it really a linear relationship between the predictors and the outcome? You may want to include a quadratic term, for example. A log transformation may better represent the phenomena that you’d like to model. Or, is there any important variable that you left out from your model? Other variables you didn’t include (e.g., Radio or Newspaper advertising budgets) may play an important role in your model and data. Or, maybe, your data were systematically biased when collecting data. You may want to redesign data collection methods.

**Checking residuals is a way to discover new insights in your model and data!**

### Making Predictions

Often the goal with regression approaches is to make predictions on new data.  To assess how well our model will do in this endeavor we need to assess how it does in making predictions against our test data set.  This informs us how well our model generalizes to data outside our training set.  We can use our model to predict Sales values for our test data by using `add_predictions`.


```r
(test <- test %>% 
  add_predictions(model1))
## # A tibble: 78 × 5
##       TV Radio Newspaper Sales      pred
##    <dbl> <dbl>     <dbl> <dbl>     <dbl>
## 1   44.5  39.3      45.1  10.4  9.001721
## 2  151.5  41.3      58.5  18.5 14.382075
## 3  180.8  10.8      58.4  12.9 15.855386
## 4  120.2  19.6      11.6  13.2 12.808196
## 5   66.1   5.8      24.2   8.6 10.087849
## 6   23.8  35.1      65.9   9.2  7.960849
## 7  195.4  47.7      52.9  22.4 16.589528
## 8  147.3  23.9      19.1  14.6 14.170883
## 9  218.4  27.7      53.4  18.0 17.746053
## 10 237.4   5.1      23.5  12.5 18.701442
## # ... with 68 more rows
```
…
