…
## Replication Requirements {#req}

This tutorial primarily leverages the `Default` data provided by the `ISLR` package. This is a simulated data set containing information on ten thousand customers such as whether the customer defaulted, is a student, the average balance carried by the customer and the income of the customer.  We'll also use a few packages that provide data manipulation, visualization, pipeline modeling functions, and model output tidying functions.


```r
# Packages
library(tidyverse)  # data manipulation and visualization
library(modelr)     # provides easy pipeline modeling functions
library(broom)      # helps to tidy up model outputs

# Load data 
(default <- as_tibble(ISLR::Default))
## # A tibble: 10,000 × 4
##    default student   balance    income
##     <fctr>  <fctr>     <dbl>     <dbl>
## 1       No      No  729.5265 44361.625
## 2       No     Yes  817.1804 12106.135
## 3       No      No 1073.5492 31767.139
## 4       No      No  529.2506 35704.494
## 5       No      No  785.6559 38463.496
## 6       No     Yes  919.5885  7491.559
## 7       No      No  825.5133 24905.227
## 8       No     Yes  808.6675 17600.451
## 9       No      No 1161.0579 37468.529
## 10      No      No    0.0000 29275.268
## # ... with 9,990 more rows
```
…
