…
<center>
<img src="/public/images/analytics/feature-engineering/bow-image.png" alt="Turning raw text into a bag of words representation)" width="40%" height="40%" />
<figcaption>Fig 1. Turning raw text into a bag of words representation. Courtesy Zheng & Casari (2018).</figcaption>
</center>
<br>
In R, we can break up our text into individual words with `tidytext::unnest_tokens()`.  If we follow that with `dplyr::count()` we can sum up the unique word instances across the entire data set.


```r
df %>%
  select(`Review Text`) %>%
  unnest_tokens(word, `Review Text`) %>%
  count(word, sort = TRUE)
## # A tibble: 14,804 x 2
##    word      n
##    <chr> <int>
##  1 the   76114
##  2 i     59237
##  3 and   49007
##  4 a     43012
##  5 it    42800
##  6 is    30640
##  7 this  25751
##  8 to    24581
##  9 in    20721
## 10 but   16554
## # ... with 14,794 more rows
```
## Filtering {#filter}

To make text features more useful, informative, and to separate the wheat from the chaff we often want to perform some filtering methods.


### Stop words

One problem that you probably see is that our bag of words vector contains many non-informative words.  Words such as "the", "i", "and", "it" do not provide much context. These are considered stop words. Most of the time we want our text features to identify words that provide context (i.e. dress, love, size, flattering, etc.). Thus, we can remove the stop words from our tibble with `anti_join()` and the built-in __stop_words__ data set provided by the __tidytext__ package.  

```r
df %>%
  unnest_tokens(word, `Review Text`) %>%
  anti_join(stop_words) %>%
  count(word, sort = TRUE)
## # A tibble: 14,143 x 2
##    word           n
##    <chr>      <int>
##  1 dress      10553
##  2 love        8948
##  3 size        8768
##  4 top         7405
##  5 fit         7318
##  6 wear        6439
##  7 fabric      4790
##  8 color       4605
##  9 perfect     3772
## 10 flattering  3517
## # ... with 14,133 more rows
```
…
<center>
<img src="/public/images/analytics/feature-engineering/bow-r3-1.png" alt="Turning raw text into a bag of words representation)" width="60%" height="60%" />
</center>

Often, low count words are obscure words, misspellings, or non-words. If we look closely at these low count words we see that many of them are truly uninformative non-words.   


```r
df %>%
  unnest_tokens(word, `Review Text`) %>%
  anti_join(stop_words) %>%
  count(word) %>%
  arrange(n)
## # A tibble: 14,143 x 2
##    word                       n
##    <chr>                  <int>
##  1 ______                     1
##  2 _________________          1
##  3 __________________         1
##  4 ______________________     1
##  5 0.02                       1
##  6 03dd                       1
##  7 04                         1
##  8 06                         1
##  9 0dd                        1
## 10 0in                        1
## # ... with 14,133 more rows
```
…
```r
df %>%
  unnest_tokens(word, `Review Text`) %>%
  anti_join(stop_words) %>%
  filter(
    !str_detect(word, pattern = "[[:digit:]]"), # removes any words with numeric digits
    !str_detect(word, pattern = "[[:punct:]]"), # removes any remaining punctuations
    !str_detect(word, pattern = "(.)\\1{2,}"),  # removes any words with 3 or more repeated letters
    !str_detect(word, pattern = "\\b(.)\\b")    # removes any remaining single letter words
    ) %>%
  count(word) %>%
  arrange(n)
## # A tibble: 12,828 x 2
##    word            n
##    <chr>       <int>
##  1 aame            1
##  2 abck            1
##  3 abdominal       1
##  4 abercrombie     1
##  5 abhor           1
##  6 abject          1
##  7 abnormal        1
##  8 abolutely       1
##  9 abruptly        1
## 10 absence         1
## # ... with 12,818 more rows
```
…
```r
df %>%
  unnest_tokens(word, `Review Text`) %>%
  anti_join(stop_words) %>%
  filter(
    !str_detect(word, pattern = "[[:digit:]]"), # removes any words with numeric digits
    !str_detect(word, pattern = "[[:punct:]]"), # removes any remaining punctuations
    !str_detect(word, pattern = "(.)\\1{2,}"),  # removes any words with 3 or more repeated letters
    !str_detect(word, pattern = "\\b(.)\\b")    # removes any remaining single letter words
    ) %>%
  count(word) %>%
  filter(n >= 10) %>% # filter for words used 10 or more times
  arrange(n)
## # A tibble: 2,830 x 2
##    word              n
##    <chr>         <int>
##  1 accessory        10
##  2 act              10
##  3 alright          10
##  4 answer           10
##  5 anticipate       10
##  6 appropriately    10
##  7 arrives          10
##  8 backwards        10
##  9 balances         10
## 10 balls            10
## # ... with 2,820 more rows
```
…
df %>%
  unnest_tokens(word, `Review Text`) %>%
  anti_join(stop_words) %>%
  filter(
    !str_detect(word, pattern = "[[:digit:]]"), # removes any words with numeric digits
    !str_detect(word, pattern = "[[:punct:]]"), # removes any remaining punctuations
    !str_detect(word, pattern = "(.)\\1{2,}"),  # removes any words with 3 or more repeated letters
    !str_detect(word, pattern = "\\b(.)\\b")    # removes any remaining single letter words
    ) %>%
  count(word) %>%
  mutate(word = if_else(n < 10, "infrequent", word)) %>% # categorize infrequent words
  group_by(word) %>%
  summarize(n = sum(n)) %>%
  arrange(desc(n))
## # A tibble: 2,831 x 2
##    word           n
##    <chr>      <int>
##  1 infrequent 22847
##  2 dress      10553
##  3 love        8948
##  4 size        8768
##  5 top         7405
##  6 fit         7318
##  7 wear        6439
##  8 fabric      4790
##  9 color       4605
## 10 perfect     3772
## # ... with 2,821 more rows
```
…
df %>%
  unnest_tokens(word, `Review Text`) %>%
  anti_join(stop_words) %>%
  filter(
    !str_detect(word, pattern = "[[:digit:]]"), 
    !str_detect(word, pattern = "[[:punct:]]"),
    !str_detect(word, pattern = "(.)\\1{2,}"),  
    !str_detect(word, pattern = "\\b(.)\\b")    
    ) %>%
  mutate(word = corpus::text_tokens(word, stemmer = "en") %>% unlist()) %>% # add stemming process
  count(word) %>% 
  group_by(word) %>%
  summarize(n = sum(n)) %>%
  arrange(desc(n))
## # A tibble: 8,789 x 2
##    word        n
##    <chr>   <int>
##  1 dress   12173
##  2 fit     11504
##  3 love    11392
##  4 size    10716
##  5 top      8360
##  6 wear     8075
##  7 color    7299
##  8 perfect  5282
##  9 fabric   4885
## 10 nice     3819
## # ... with 8,779 more rows
```
…
# create new features
bow_features <- df %>%
  unnest_tokens(word, `Review Text`) %>%
  anti_join(stop_words) %>%
  filter(word %in% word_list) %>%     # filter for only words in the wordlist
  count(ID, word) %>%                 # count word useage by customer ID
  spread(word, n) %>%                 # convert to wide format
  map_df(replace_na, 0)               # replace NAs with 0

bow_features
## # A tibble: 22,640 x 2,831
##    ID    ability absolute absolutely   abt accent accents accentuate
##    <chr>   <dbl>    <dbl>      <dbl> <dbl>  <dbl>   <dbl>      <dbl>
##  1 0           0        0          1     0      0       0          0
##  2 1           0        0          0     0      0       0          0
##  3 10          0        0          0     0      0       0          0
##  4 100         0        0          0     0      0       0          0
##  5 1000        0        0          0     0      0       0          0
##  6 10000       0        0          0     0      0       0          0
##  7 10001       0        0          0     0      0       0          0
##  8 10002       0        0          0     0      0       0          0
##  9 10003       0        0          0     0      0       0          0
## 10 10004       0        0          0     0      0       0          0
## # ... with 22,630 more rows, and 2,823 more variables: accentuated <dbl>,
## #   accentuates <dbl>, acceptable <dbl>, accessories <dbl>,
## #   accessorize <dbl>, accessory <dbl>, accidentally <dbl>,
## #   accommodate <dbl>, accurate <dbl>, accurately <dbl>, achieve <dbl>,
## #   acrylic <dbl>, act <dbl>, active <dbl>, actual <dbl>, add <dbl>,
## #   added <dbl>, adding <dbl>, addition <dbl>, additional <dbl>,
## #   additionally <dbl>, adds <dbl>, adequate <dbl>, adjust <dbl>,
## #   adjustable <dbl>, adjusted <dbl>, adjusting <dbl>, admit <dbl>,
## #   adn <dbl>, adorable <dbl>, adore <dbl>, adored <dbl>, advantage <dbl>,
…
Now we can add these features by joining this new feature set to the original feature set using the ID variable as the key.


```r
# join original data and new feature set together
df_bow <- df %>%
  inner_join(bow_features, by = "ID") %>%   # join data sets
  select(-`Review Text`)                    # remove original review text

# dimension of our new data set
dim(df_bow)
## [1] 22640  2839

as_tibble(df_bow)
## # A tibble: 22,640 x 2,839
##    ID    `Clothing ID`   Age Rating `Recommended IN… `Positive Feedb…
##    <chr> <chr>         <int>  <int>            <int>            <int>
##  1 0     767              33      4                1                0
##  2 1     1080             34      5                1                4
##  3 2     1077             60      3                0                0
##  4 3     1049             50      5                1                0
##  5 4     847              47      5                1                6
##  6 5     1080             49      2                0                4
##  7 6     858              39      5                1                1
##  8 7     858              39      4                1                4
##  9 8     1077             24      5                1                0
## 10 9     1077             34      5                1                0
## # ... with 22,630 more rows, and 2,833 more variables: `Division
## #   Name` <chr>, `Department Name` <chr>, `Class Name` <chr>,
## #   ability <dbl>, absolute <dbl>, absolutely <dbl>, abt <dbl>,
## #   accent <dbl>, accents <dbl>, accentuate <dbl>, accentuated <dbl>,
## #   accentuates <dbl>, acceptable <dbl>, accessories <dbl>,
## #   accessorize <dbl>, accessory <dbl>, accidentally <dbl>,
## #   accommodate <dbl>, accurate <dbl>, accurately <dbl>, achieve <dbl>,
## #   acrylic <dbl>, act <dbl>, active <dbl>, actual <dbl>, add <dbl>,
## #   added <dbl>, adding <dbl>, addition <dbl>, additional <dbl>,
…
# sneak peek at our bi-gram list
head(ngram_list)
## [1] "absolutely adorable"  "absolutely adore"     "absolutely beautiful"
## [4] "absolutely fell"      "absolutely gorgeous"  "absolutely love"

# create new bi-gram features
ngram_features <- df %>%
  unnest_tokens(bigram, `Review Text`, token = "ngrams", n = 2) %>%
  filter(bigram %in% ngram_list) %>%    # filter for only bi-grams in the ngram_list
  count(ID, bigram) %>%                 # count bi-gram useage by customer ID
  spread(bigram, n) %>%                 # convert to wide format
  map_df(replace_na, 0)                 # replace NAs with 0

ngram_features
## # A tibble: 17,286 x 1,354
##    ID    `absolutely ado… `absolutely ado… `absolutely bea…
##    <chr>            <dbl>            <dbl>            <dbl>
##  1 10                   0                0                0
##  2 100                  0                0                0
##  3 1000                 0                0                0
##  4 10000                0                0                0
##  5 10001                0                0                0
##  6 10002                0                0                0
##  7 10005                0                0                0
##  8 10006                0                0                0
##  9 10007                0                0                0
## 10 10008                0                0                0
## # ... with 17,276 more rows, and 1,350 more variables: `absolutely
## #   fell` <dbl>, `absolutely gorgeous` <dbl>, `absolutely love` <dbl>,
## #   `absolutely loved` <dbl>, `absolutely lovely` <dbl>, `absolutely
## #   perfect` <dbl>, `absolutely stunning` <dbl>, `add bulk` <dbl>, `added
## #   bonus` <dbl>, `adjustable straps` <dbl>, `adorable dress` <dbl>,
## #   `adorable top` <dbl>, `ag jeans` <dbl>, `ag stevie` <dbl>, `air
## #   dried` <dbl>, `air dry` <dbl>, `air drying` <dbl>, `amazing
## #   dress` <dbl>, `amazingly soft` <dbl>, `amp amp` <dbl>, `ankle
## #   bone` <dbl>, `ankle boots` <dbl>, `ankle jeans` <dbl>, `ankle
…
