…
where *t* is the time step that you are smoothing at and 5 is the number of points being used to calculate the average (which moving forward will be denoted as *k*). To compute moving averages on our data we can leverage the `rollmean` function from the `zoo` package.  Here, we focus on the personal savings rate (`psavert`) variable in the `economics` data frame.  Using `mutate` and `rollmean`, I compute the 13, 25, ..., 121 month moving average values and add this data back to the data frame.  Note that we need to explicitly state to fill any years that cannot be computed (due to lack of data) with NA.


```r
savings <- economics %>%
  select(date, srate = psavert) %>%
  mutate(srate_ma01 = rollmean(srate, k = 13, fill = NA),
         srate_ma02 = rollmean(srate, k = 25, fill = NA),
         srate_ma03 = rollmean(srate, k = 37, fill = NA),
         srate_ma05 = rollmean(srate, k = 61, fill = NA),
         srate_ma10 = rollmean(srate, k = 121, fill = NA))

savings
## # A tibble: 574 x 7
##          date srate srate_ma01 srate_ma02 srate_ma03 srate_ma05 srate_ma10
##        <date> <dbl>      <dbl>      <dbl>      <dbl>      <dbl>      <dbl>
##  1 1967-07-01  12.5         NA         NA         NA         NA         NA
##  2 1967-08-01  12.5         NA         NA         NA         NA         NA
##  3 1967-09-01  11.7         NA         NA         NA         NA         NA
##  4 1967-10-01  12.5         NA         NA         NA         NA         NA
##  5 1967-11-01  12.5         NA         NA         NA         NA         NA
##  6 1967-12-01  12.1         NA         NA         NA         NA         NA
##  7 1968-01-01  11.7   11.97692         NA         NA         NA         NA
##  8 1968-02-01  12.2   11.81538         NA         NA         NA         NA
##  9 1968-03-01  11.6   11.65385         NA         NA         NA         NA
## 10 1968-04-01  12.2   11.56923         NA         NA         NA         NA
## # ... with 564 more rows
```
…
