R Programming
…
Categorical Variables: Bar Chart

What if we want to visualize data regarding many categories…

library(dplyr)

state <- reddit %>%
        group_by(state) %>%
        tally() %>%
        arrange(n) %>%
        filter(state != "")

state

## # A tibble: 52 x 2
##            state     n
##           <fctr> <int>
## 1        Ontario     1
## 2        Wyoming    20
## 3   South Dakota    28
## 4   North Dakota    34
## 5        Montana    46
## 6    Mississippi    48
## 7  West Virginia    51
## 8       Delaware    59
## 9         Hawaii    68
## 10  Rhode Island    72
## # ... with 42 more rows
…
